Math221 Notebook - Level up your Tidy-ness
…
unique(survey$Superpower)

[1] "Telepathy"      "Invisibility"   "Fly"            "Freeze time"   
[5] "Super strength"

telepaths <- survey %>%
  select(Gender, Superpower, Sleep_Hours_Non_Schoolnight) %>%
  filter(Superpower=="Telepathy") %>%
  mutate(
    percent_of_recommended = Sleep_Hours_Non_Schoolnight / 8
  )

telepaths

# A tibble: 81 × 4
   Gender Superpower Sleep_Hours_Non_Schoolnight percent_of_recommended
   <chr>  <chr>                            <dbl>                  <dbl>
 1 Male   Telepathy                            7                  0.875
 2 Female Telepathy                            9                  1.12 
 3 Male   Telepathy                            9                  1.12 
 4 Female Telepathy                            8                  1    
 5 Female Telepathy                            9                  1.12 
 6 Male   Telepathy                           11                  1.38 
 7 Female Telepathy                           11                  1.38 
 8 Female Telepathy                            9                  1.12 
 9 Female Telepathy                            9                  1.12 
10 Female Telepathy                           10                  1.25 
# ℹ 71 more rows
…
