Math221 Notebook - filter()
…
Filtering on Categorical Data

Suppose for some reason, we only want to include right- or left-handed people (excluding ambidextrous). We can add multiple conditions in the filter() function separated by a comma:

# See what the distinct values are in the Handed column
unique(survey$Handed)

[1] "Left-Handed"  "Right-Handed" "Ambidextrous"

survey %>%
  filter(Height_cm < 250,
         Handed != "Ambidextrous")

# A tibble: 302 × 60
   Country Region DataYear ClassGrade Gender Ageyears Handed       Height_cm
   <chr>   <chr>     <int>      <int> <chr>     <dbl> <chr>            <dbl>
 1 USA     FL         2022         12 Male         18 Left-Handed        182
 2 USA     IN         2022         12 Male         17 Right-Handed       190
 3 USA     GA         2022         12 Female       17 Right-Handed       172
 4 USA     NC         2022         11 Female       15 Right-Handed       163
 5 USA     CO         2022         12 Female       17 Left-Handed         51
 6 USA     MO         2022         11 Male         17 Right-Handed       181
 7 USA     SC         2022         11 Female       18 Right-Handed       160
 8 USA     WA         2022         11 Female       16 Right-Handed       156
 9 USA     WA         2022         12 Female       17 Right-Handed       169
10 USA     WA         2022         11 Male         18 Right-Handed       160
# ℹ 292 more rows
# ℹ 52 more variables: Footlength_cm <dbl>, Armspan_cm <dbl>,
#   Languages_spoken <dbl>, Travel_to_School <chr>,
#   Travel_time_to_School <int>, Reaction_time <dbl>,
#   Score_in_memory_game <dbl>, Favourite_physical_activity <chr>,
#   Imprtance_reducing_pllutin <int>, Imprtance_recycling_rubbish <int>,
#   Imprtance_cnserving_water <int>, Imprtance_saving_energy <int>, …

# We could also try using %in% instead of  "!="

survey %>%
  filter(Height_cm < 250,
         Handed %in% c("Left-Handed", "Right-Handed"))

# A tibble: 302 × 60
   Country Region DataYear ClassGrade Gender Ageyears Handed       Height_cm
   <chr>   <chr>     <int>      <int> <chr>     <dbl> <chr>            <dbl>
 1 USA     FL         2022         12 Male         18 Left-Handed        182
 2 USA     IN         2022         12 Male         17 Right-Handed       190
 3 USA     GA         2022         12 Female       17 Right-Handed       172
 4 USA     NC         2022         11 Female       15 Right-Handed       163
 5 USA     CO         2022         12 Female       17 Left-Handed         51
 6 USA     MO         2022         11 Male         17 Right-Handed       181
 7 USA     SC         2022         11 Female       18 Right-Handed       160
 8 USA     WA         2022         11 Female       16 Right-Handed       156
 9 USA     WA         2022         12 Female       17 Right-Handed       169
10 USA     WA         2022         11 Male         18 Right-Handed       160
# ℹ 292 more rows
# ℹ 52 more variables: Footlength_cm <dbl>, Armspan_cm <dbl>,
#   Languages_spoken <dbl>, Travel_to_School <chr>,
#   Travel_time_to_School <int>, Reaction_time <dbl>,
#   Score_in_memory_game <dbl>, Favourite_physical_activity <chr>,
#   Imprtance_reducing_pllutin <int>, Imprtance_recycling_rubbish <int>,
#   Imprtance_cnserving_water <int>, Imprtance_saving_energy <int>, …
…
