Math221 Notebook - Introducing the Tidyverse - Part 1
…
== means “equal to” (NOTE: we use double equals because in most computer languages, a single = is an assignment operator. This avoids ambiguity)

!= means “not equal to”; this one is useful if you want to eliminate one level of a variable

%in% is useful for defining a list of levels that you want to include

We typically begin with the raw dataset, then “pipe” that dataset into a sequence of functions using the “pipe” operator, %>%.

Let’s begin by filtering out rows we think have legitimate heights:

survey %>% 
  filter(Height_cm < 214)

# A tibble: 310 × 60
   Country Region DataYear ClassGrade Gender Ageyears Handed       Height_cm
   <chr>   <chr>     <int>      <int> <chr>     <dbl> <chr>            <dbl>
 1 USA     FL         2022         12 Male         18 Left-Handed        182
 2 USA     IN         2022         12 Male         17 Right-Handed       190
 3 USA     GA         2022         12 Female       17 Right-Handed       172
 4 USA     NC         2022         11 Female       15 Right-Handed       163
 5 USA     CO         2022         12 Female       17 Left-Handed         51
 6 USA     MO         2022         11 Male         17 Right-Handed       181
 7 USA     NC         2022         11 Male         17 Ambidextrous       175
 8 USA     SC         2022         11 Female       18 Right-Handed       160
 9 USA     WA         2022         11 Female       16 Right-Handed       156
10 USA     WA         2022         12 Female       17 Right-Handed       169
# ℹ 300 more rows
# ℹ 52 more variables: Footlength_cm <dbl>, Armspan_cm <dbl>,
#   Languages_spoken <dbl>, Travel_to_School <chr>,
#   Travel_time_to_School <int>, Reaction_time <dbl>,
#   Score_in_memory_game <dbl>, Favourite_physical_activity <chr>,
#   Imprtance_reducing_pllutin <int>, Imprtance_recycling_rubbish <int>,
#   Imprtance_cnserving_water <int>, Imprtance_saving_energy <int>, …
…
How many rows does the original dataset have?

How many rows does the filtered dataset have?

Suppose for some reason, we only want to include right- or left-handed people (excluding ambidextrous). We can add multiple conditions in the filter() function separated by a comma:

unique(survey$Handed)

[1] "Left-Handed"  "Right-Handed" "Ambidextrous"

survey %>%
  filter(Height_cm < 214,
         Handed != "Ambidextrous")

# A tibble: 302 × 60
   Country Region DataYear ClassGrade Gender Ageyears Handed       Height_cm
   <chr>   <chr>     <int>      <int> <chr>     <dbl> <chr>            <dbl>
 1 USA     FL         2022         12 Male         18 Left-Handed        182
 2 USA     IN         2022         12 Male         17 Right-Handed       190
 3 USA     GA         2022         12 Female       17 Right-Handed       172
 4 USA     NC         2022         11 Female       15 Right-Handed       163
 5 USA     CO         2022         12 Female       17 Left-Handed         51
 6 USA     MO         2022         11 Male         17 Right-Handed       181
 7 USA     SC         2022         11 Female       18 Right-Handed       160
 8 USA     WA         2022         11 Female       16 Right-Handed       156
 9 USA     WA         2022         12 Female       17 Right-Handed       169
10 USA     WA         2022         11 Male         18 Right-Handed       160
# ℹ 292 more rows
# ℹ 52 more variables: Footlength_cm <dbl>, Armspan_cm <dbl>,
#   Languages_spoken <dbl>, Travel_to_School <chr>,
#   Travel_time_to_School <int>, Reaction_time <dbl>,
#   Score_in_memory_game <dbl>, Favourite_physical_activity <chr>,
#   Imprtance_reducing_pllutin <int>, Imprtance_recycling_rubbish <int>,
#   Imprtance_cnserving_water <int>, Imprtance_saving_energy <int>, …

# Equivalently we can use %in% instead of the !=

survey %>%
  filter(Height_cm < 214,
         Handed %in% c("Left-Handed", "Right-Handed"),
         Region %in% c("MO", "FL"))

# A tibble: 27 × 60
   Country Region DataYear ClassGrade Gender Ageyears Handed       Height_cm
   <chr>   <chr>     <int>      <int> <chr>     <dbl> <chr>            <dbl>
 1 USA     FL         2022         12 Male         18 Left-Handed       182 
 2 USA     MO         2022         11 Male         17 Right-Handed      181 
 3 USA     MO         2022         11 Female       17 Right-Handed      151 
 4 USA     FL         2022         12 Female       18 Right-Handed      170 
 5 USA     FL         2022         12 Male         18 Right-Handed      180 
 6 USA     FL         2022         12 Female       18 Right-Handed      173.
 7 USA     FL         2022         12 Male         18 Right-Handed      175 
 8 USA     FL         2022         12 Male         17 Right-Handed      180 
 9 USA     MO         2022         11 Male         17 Right-Handed      164 
10 USA     FL         2022         12 Female       17 Right-Handed      166 
# ℹ 17 more rows
# ℹ 52 more variables: Footlength_cm <dbl>, Armspan_cm <dbl>,
#   Languages_spoken <dbl>, Travel_to_School <chr>,
#   Travel_time_to_School <int>, Reaction_time <dbl>,
#   Score_in_memory_game <dbl>, Favourite_physical_activity <chr>,
#   Imprtance_reducing_pllutin <int>, Imprtance_recycling_rubbish <int>,
#   Imprtance_cnserving_water <int>, Imprtance_saving_energy <int>, …
…
View(clean)

Notice we no longer have to use $ to access specific columns! The tidyverse lives up to its name!

Selecting Columns - select()

There are now over 60 columns in this dataset. Suppose we are only interested in reaction times and height-to-armspan ratio as they related to handedness. To tidy up the data even further, select only the columns we are interested in (Handed, Reaction_time, and ht_to_span):

survey %>%
  filter(Height_cm < 214,
         Handed != "Ambidextrous") %>%
  mutate(ht_to_span = Height_cm / Armspan_cm) %>%
  select(Handed, Reaction_time, ht_to_span)

# A tibble: 302 × 3
   Handed       Reaction_time ht_to_span
   <chr>                <dbl>      <dbl>
 1 Left-Handed          0.349      1.28 
 2 Right-Handed         0.358      0.990
 3 Right-Handed         0.447      1.03 
 4 Right-Handed         0.438      1.02 
 5 Left-Handed          0.542      0.981
 6 Right-Handed         0.428      0.968
 7 Right-Handed         0.427      1.01 
 8 Right-Handed         0.412      1.10 
 9 Right-Handed         0.346      1.04 
10 Right-Handed         0.391      1    
# ℹ 292 more rows
…
