Math221 Notebook - mutate()
…
Click to see how to filter outliers of ht_to_wt ratio and select only the columns of interest.

Click to see

clean <- survey %>%
  filter(Armspan_cm > 0) %>%
  mutate(ht_to_span = Height_cm / Armspan_cm,
         Height_in = Height_cm / 2.54) %>%
  select(Height_cm, Armspan_cm, ht_to_span, Height_in) %>% 
  filter(ht_to_span < 1.5,
         ht_to_span > .5)
clean

# A tibble: 268 × 4
   Height_cm Armspan_cm ht_to_span Height_in
       <dbl>      <dbl>      <dbl>     <dbl>
 1       182       142       1.28       71.7
 2       190       192       0.990      74.8
 3       172       167       1.03       67.7
 4       163       160       1.02       64.2
 5        51        52       0.981      20.1
 6       181       187       0.968      71.3
 7       160       159       1.01       63.0
 8       156       142.      1.10       61.4
 9       169       162       1.04       66.5
10       160       160       1          63.0
# ℹ 258 more rows
…
